…
json_content <- read_html(url)%>%
  html_nodes("ul.au-tags.homepage-search-tags")%>%
  html_nodes("a")%>%
  first()%>%
  html_attr("href")%>%
  str_glue("https://data.nsw.gov.au", .) %>%
  fromJSON(simplifyVector = FALSE) %>%
  roomba(cols = c("name","format","url"))%>%
  filter(str_detect(str_to_lower(format),"xlsx"))

json_content
```

    ## # A tibble: 39 x 3
    ##    name                   format     url                                   
    ##    <chr>                  <chr>      <chr>                                 
    ##  1 Fuelcheck Price Histo… excel (.x… https://data.nsw.gov.au/data/dataset/…
    ##  2 Fuelcheck Price Histo… excel (.x… https://data.nsw.gov.au/data/dataset/…
    ##  3 Fuelcheck Price Histo… excel (.x… https://data.nsw.gov.au/data/dataset/…
    ##  4 Fuelcheck Price Histo… excel (.x… https://data.nsw.gov.au/data/dataset/…
    ##  5 Fuelcheck Price Histo… XLSX       https://data.nsw.gov.au/data/dataset/…
    ##  6 Fuelcheck Price Histo… XLSX       https://data.nsw.gov.au/data/dataset/…
    ##  7 Fuelcheck Price Histo… XLSX       https://data.nsw.gov.au/data/dataset/…
    ##  8 Fuelcheck Price Histo… XLSX       https://data.nsw.gov.au/data/dataset/…
    ##  9 Fuelcheck Price Histo… XLSX       https://data.nsw.gov.au/data/dataset/…
    ## 10 Fuelcheck Price Histo… XLSX       https://data.nsw.gov.au/data/dataset/…
    ## # … with 29 more rows
…
